[gd_scene load_steps=4 format=2]

[ext_resource path="res://addons/mcir_editor/pattern/pattern_list_embedded.gd" type="Script" id=1]
[ext_resource path="res://addons/mcir_editor/piano.gd" type="Script" id=2]
[ext_resource path="res://addons/mcir_editor/piano_play_manager.gd" type="Script" id=3]

[node name="ple" type="Tree"]
margin_top = 18.0
margin_right = 200.0
margin_bottom = 194.0
rect_min_size = Vector2( 200, 0 )
size_flags_vertical = 3
hide_root = true
script = ExtResource( 1 )
__meta__ = {
"_edit_use_anchors_": false
}

[node name="piano" type="Control" parent="."]
focus_mode = 1
mouse_filter = 2
script = ExtResource( 2 )
__meta__ = {
"_edit_use_anchors_": false
}

[node name="piano_play_manager" type="Node" parent="."]
script = ExtResource( 3 )

[connection signal="button_pressed" from="." to="." method="_on_ple_button_pressed"]
[connection signal="item_selected" from="." to="." method="_on_ple_item_selected"]
[connection signal="piano_key" from="piano" to="piano_play_manager" method="_on_Piano_piano_key"]
