[gd_resource type="StyleBoxFlat" format=2]

[resource]
content_margin_top = 24.0
bg_color = Color( 0, 0, 0, 1 )
border_width_left = 2
border_width_top = 2
border_width_right = 2
border_width_bottom = 2
border_color = Color( 1, 1, 1, 1 )
corner_radius_top_left = 4
corner_radius_top_right = 4
corner_radius_bottom_right = 4
corner_radius_bottom_left = 4
expand_margin_left = 4.0
expand_margin_right = 4.0
expand_margin_top = 4.0
expand_margin_bottom = 4.0
