[gd_scene load_steps=2 format=2]

[ext_resource path="res://baseq3/maps/lab2parts/room.map" type="PackedScene" id=1]

[node name="RoomManager" type="RoomManager"]
roomlist = NodePath("Spatial")

[node name="Spatial" type="Spatial" parent="."]

[node name="Room" parent="Spatial" instance=ExtResource( 1 )]
transform = Transform( 1, 0, 0, 0, 1, 0, 0, 0, 1, -4, 0, 0 )

[node name="Room2" parent="Spatial" instance=ExtResource( 1 )]
transform = Transform( -1, 0, -8.74228e-08, 0, 1, 0, 8.74228e-08, 0, -1, 4, 0, 0 )
