[gd_resource type="Resource" load_steps=2 format=2]

[ext_resource path="res://addons/map_io/builder/material.gd" type="Script" id=1]

[resource]
script = ExtResource( 1 )
size = Vector2( 1, 1 )
no_collide = true
skip = false
window = false
areaportal = true
